{
    "RPT": {
        "ScanTime": "0.341 sec.",
        "ScanFile": "20210531_virtualexhibition_593edcc53715a5961471_20210531040059_scan.json",
        "ScanCreated": "2021-05-31 04:01:01",
        "ScanPath": "\/var\/www\/fbchanoi\/wp-content\/backups-dup-pro\/tmp\/20210531_virtualexhibition_593edcc53715a5961471_20210531040059_scan.json"
    },
    "SRV": {
        "Brand": {
            "LogoAttachmentExists": false,
            "LogoCount": 0,
            "LogoFinded": 0,
            "LogoImageExists": true,
            "LogoImages": [],
            "Name": "Default",
            "Notes": "The default content used when a brand is not defined"
        },
        "HOST": [],
        "PHP": {
            "websrv": true,
            "openbase": true,
            "maxtime": true,
            "openssl": true,
            "mysqli": true,
            "allowurlfopen": true,
            "curlavailable": true,
            "version": true,
            "ALL": "Good"
        },
        "WP": {
            "version": true,
            "core": true,
            "ismu": false,
            "ismuplus": false,
            "ALL": "Good"
        }
    },
    "ARC": {
        "Size": "516.57MB",
        "DirCount": "1,845",
        "FileCount": "11,657",
        "FullCount": "13,502",
        "USize": 541665189,
        "UDirCount": 1845,
        "UFileCount": 11657,
        "UFullCount": 13502,
        "WarnFileCount": 0,
        "WarnDirCount": 0,
        "UnreadableDirCount": 0,
        "UnreadableFileCount": 0,
        "FilterDirsAll": [
            "\/var\/www\/fbchanoi\/.opcache",
            "\/var\/www\/fbchanoi\/news",
            "\/var\/www\/fbchanoi\/wp-content\/ai1wm-backups",
            "\/var\/www\/fbchanoi\/wp-content\/backups-dup-pro",
            "\/var\/www\/fbchanoi\/wp-content\/backupwordpress",
            "\/var\/www\/fbchanoi\/wp-content\/cache",
            "\/var\/www\/fbchanoi\/wp-content\/content\/cache",
            "\/var\/www\/fbchanoi\/wp-content\/contents\/cache",
            "\/var\/www\/fbchanoi\/wp-content\/infinitewp\/backups",
            "\/var\/www\/fbchanoi\/wp-content\/managewp\/backups",
            "\/var\/www\/fbchanoi\/wp-content\/old-cache",
            "\/var\/www\/fbchanoi\/wp-content\/plugins\/all-in-one-wp-migration\/storage",
            "\/var\/www\/fbchanoi\/wp-content\/plugins\/really-simple-captcha\/tmp",
            "\/var\/www\/fbchanoi\/wp-content\/plugins\/wordfence\/tmp",
            "\/var\/www\/fbchanoi\/wp-content\/updraft",
            "\/var\/www\/fbchanoi\/wp-content\/uploads\/aiowps_backups",
            "\/var\/www\/fbchanoi\/wp-content\/uploads\/backup-guard",
            "\/var\/www\/fbchanoi\/wp-content\/uploads\/backupbuddy_backups",
            "\/var\/www\/fbchanoi\/wp-content\/uploads\/backupbuddy_temp",
            "\/var\/www\/fbchanoi\/wp-content\/uploads\/ithemes-security\/backups",
            "\/var\/www\/fbchanoi\/wp-content\/uploads\/mainwp\/backup",
            "\/var\/www\/fbchanoi\/wp-content\/uploads\/pb_backupbuddy",
            "\/var\/www\/fbchanoi\/wp-content\/uploads\/snapshots",
            "\/var\/www\/fbchanoi\/wp-content\/uploads\/sucuri",
            "\/var\/www\/fbchanoi\/wp-content\/uploads\/wp-clone",
            "\/var\/www\/fbchanoi\/wp-content\/uploads\/wp_all_backup",
            "\/var\/www\/fbchanoi\/wp-content\/uploads\/wpbackitup_backups",
            "\/var\/www\/fbchanoi\/wp-content\/wfcache",
            "\/var\/www\/fbchanoi\/wp-content\/wishlist-backup",
            "\/var\/www\/fbchanoi\/wp-snapshots"
        ],
        "FilterFilesAll": [
            ".DS_Store",
            "\/var\/www\/fbchanoi\/.htaccess",
            "\/var\/www\/fbchanoi\/wp-config.php",
            "dbcache",
            "debug_log",
            "error.log",
            "error_log",
            "objectcache",
            "pgcache",
            "ws_ftp.log"
        ],
        "FilterExtsAll": [],
        "Status": {
            "Size": "Good",
            "Names": "Good",
            "Big": "Warn",
            "AddonSites": "Good",
            "UnreadableItems": "Good"
        },
        "RecursiveLinks": [],
        "UnreadableItems": []
    },
    "DB": {
        "Status": {
            "Success": true,
            "Size": "Good",
            "Rows": "Good"
        },
        "Size": "22.19MB",
        "Rows": "56,731",
        "TableCount": 59,
        "TableList": {
            "virtudb_actionscheduler_actions": {
                "Case": 0,
                "Rows": "85",
                "Size": "176KB",
                "USize": 180224
            },
            "virtudb_actionscheduler_claims": {
                "Case": 0,
                "Rows": "0",
                "Size": "32KB",
                "USize": 32768
            },
            "virtudb_actionscheduler_groups": {
                "Case": 0,
                "Rows": "0",
                "Size": "32KB",
                "USize": 32768
            },
            "virtudb_actionscheduler_logs": {
                "Case": 0,
                "Rows": "253",
                "Size": "80KB",
                "USize": 81920
            },
            "virtudb_commentmeta": {
                "Case": 0,
                "Rows": "0",
                "Size": "48KB",
                "USize": 49152
            },
            "virtudb_comments": {
                "Case": 0,
                "Rows": "0",
                "Size": "96KB",
                "USize": 98304
            },
            "virtudb_contacts": {
                "Case": 0,
                "Rows": "0",
                "Size": "32KB",
                "USize": 32768
            },
            "virtudb_db7_forms": {
                "Case": 0,
                "Rows": "18",
                "Size": "16KB",
                "USize": 16384
            },
            "virtudb_duplicator_pro_entities": {
                "Case": 0,
                "Rows": "6",
                "Size": "32KB",
                "USize": 32768
            },
            "virtudb_duplicator_pro_packages": {
                "Case": 0,
                "Rows": "0",
                "Size": "32KB",
                "USize": 32768
            },
            "virtudb_itsec_distributed_storage": {
                "Case": 0,
                "Rows": "0",
                "Size": "32KB",
                "USize": 32768
            },
            "virtudb_itsec_fingerprints": {
                "Case": 0,
                "Rows": "0",
                "Size": "48KB",
                "USize": 49152
            },
            "virtudb_itsec_geolocation_cache": {
                "Case": 0,
                "Rows": "0",
                "Size": "48KB",
                "USize": 49152
            },
            "virtudb_itsec_lockouts": {
                "Case": 0,
                "Rows": "0",
                "Size": "96KB",
                "USize": 98304
            },
            "virtudb_itsec_logs": {
                "Case": 0,
                "Rows": "55",
                "Size": "1.11MB",
                "USize": 1163264
            },
            "virtudb_itsec_opaque_tokens": {
                "Case": 0,
                "Rows": "0",
                "Size": "32KB",
                "USize": 32768
            },
            "virtudb_itsec_temp": {
                "Case": 0,
                "Rows": "2",
                "Size": "80KB",
                "USize": 81920
            },
            "virtudb_links": {
                "Case": 0,
                "Rows": "0",
                "Size": "32KB",
                "USize": 32768
            },
            "virtudb_options": {
                "Case": 0,
                "Rows": "776",
                "Size": "3.19MB",
                "USize": 3342336
            },
            "virtudb_postmeta": {
                "Case": 0,
                "Rows": "27,357",
                "Size": "6.97MB",
                "USize": 7307264
            },
            "virtudb_posts": {
                "Case": 0,
                "Rows": "1,597",
                "Size": "1.81MB",
                "USize": 1900544
            },
            "virtudb_rank_math_404_logs": {
                "Case": 0,
                "Rows": "0",
                "Size": "32KB",
                "USize": 32768
            },
            "virtudb_rank_math_analytics_gsc": {
                "Case": 0,
                "Rows": "2",
                "Size": "80KB",
                "USize": 81920
            },
            "virtudb_rank_math_analytics_objects": {
                "Case": 0,
                "Rows": "158",
                "Size": "80KB",
                "USize": 81920
            },
            "virtudb_rank_math_internal_links": {
                "Case": 0,
                "Rows": "17",
                "Size": "32KB",
                "USize": 32768
            },
            "virtudb_rank_math_internal_meta": {
                "Case": 0,
                "Rows": "173",
                "Size": "16KB",
                "USize": 16384
            },
            "virtudb_rank_math_redirections": {
                "Case": 0,
                "Rows": "0",
                "Size": "32KB",
                "USize": 32768
            },
            "virtudb_rank_math_redirections_cache": {
                "Case": 0,
                "Rows": "0",
                "Size": "32KB",
                "USize": 32768
            },
            "virtudb_rank_math_sc_analytics": {
                "Case": 0,
                "Rows": "0",
                "Size": "32KB",
                "USize": 32768
            },
            "virtudb_session_temp": {
                "Case": 0,
                "Rows": "12",
                "Size": "16KB",
                "USize": 16384
            },
            "virtudb_term_relationships": {
                "Case": 0,
                "Rows": "504",
                "Size": "64KB",
                "USize": 65536
            },
            "virtudb_term_taxonomy": {
                "Case": 0,
                "Rows": "94",
                "Size": "48KB",
                "USize": 49152
            },
            "virtudb_termmeta": {
                "Case": 0,
                "Rows": "0",
                "Size": "48KB",
                "USize": 49152
            },
            "virtudb_terms": {
                "Case": 0,
                "Rows": "94",
                "Size": "48KB",
                "USize": 49152
            },
            "virtudb_um_metadata": {
                "Case": 0,
                "Rows": "3,285",
                "Size": "912KB",
                "USize": 933888
            },
            "virtudb_usermeta": {
                "Case": 0,
                "Rows": "11,346",
                "Size": "2.42MB",
                "USize": 2539520
            },
            "virtudb_users": {
                "Case": 0,
                "Rows": "292",
                "Size": "160KB",
                "USize": 163840
            },
            "virtudb_wfblockediplog": {
                "Case": 0,
                "Rows": "0",
                "Size": "16KB",
                "USize": 16384
            },
            "virtudb_wfblocks7": {
                "Case": 0,
                "Rows": "0",
                "Size": "64KB",
                "USize": 65536
            },
            "virtudb_wfconfig": {
                "Case": 0,
                "Rows": "237",
                "Size": "464KB",
                "USize": 475136
            },
            "virtudb_wfcrawlers": {
                "Case": 0,
                "Rows": "0",
                "Size": "16KB",
                "USize": 16384
            },
            "virtudb_wffilechanges": {
                "Case": 0,
                "Rows": "0",
                "Size": "16KB",
                "USize": 16384
            },
            "virtudb_wffilemods": {
                "Case": 0,
                "Rows": "4,927",
                "Size": "2.52MB",
                "USize": 2637824
            },
            "virtudb_wfhits": {
                "Case": 0,
                "Rows": "4",
                "Size": "64KB",
                "USize": 65536
            },
            "virtudb_wfhoover": {
                "Case": 0,
                "Rows": "0",
                "Size": "32KB",
                "USize": 32768
            },
            "virtudb_wfissues": {
                "Case": 0,
                "Rows": "6",
                "Size": "80KB",
                "USize": 81920
            },
            "virtudb_wfknownfilelist": {
                "Case": 0,
                "Rows": "5,203",
                "Size": "512KB",
                "USize": 524288
            },
            "virtudb_wflivetraffichuman": {
                "Case": 0,
                "Rows": "0",
                "Size": "32KB",
                "USize": 32768
            },
            "virtudb_wflocs": {
                "Case": 0,
                "Rows": "0",
                "Size": "16KB",
                "USize": 16384
            },
            "virtudb_wflogins": {
                "Case": 0,
                "Rows": "4",
                "Size": "48KB",
                "USize": 49152
            },
            "virtudb_wfls_2fa_secrets": {
                "Case": 0,
                "Rows": "0",
                "Size": "32KB",
                "USize": 32768
            },
            "virtudb_wfls_settings": {
                "Case": 0,
                "Rows": "19",
                "Size": "16KB",
                "USize": 16384
            },
            "virtudb_wfnotifications": {
                "Case": 0,
                "Rows": "2",
                "Size": "16KB",
                "USize": 16384
            },
            "virtudb_wfpendingissues": {
                "Case": 0,
                "Rows": "0",
                "Size": "80KB",
                "USize": 81920
            },
            "virtudb_wfreversecache": {
                "Case": 0,
                "Rows": "0",
                "Size": "16KB",
                "USize": 16384
            },
            "virtudb_wfsnipcache": {
                "Case": 0,
                "Rows": "0",
                "Size": "64KB",
                "USize": 65536
            },
            "virtudb_wfstatus": {
                "Case": 0,
                "Rows": "203",
                "Size": "80KB",
                "USize": 81920
            },
            "virtudb_wftrafficrates": {
                "Case": 0,
                "Rows": "0",
                "Size": "16KB",
                "USize": 16384
            },
            "virtudb_wpfm_backup": {
                "Case": 0,
                "Rows": "0",
                "Size": "16KB",
                "USize": 16384
            }
        }
    },
    "Status": 1
}